…
Let’s also check the firs few columns if they really match.

``` r
select(daily_activity,Id,TotalSteps,Calories,FairlyActiveMinutes)
## # A tibble: 940 x 4
##            Id TotalSteps Calories FairlyActiveMinutes
##         <dbl>      <dbl>    <dbl>               <dbl>
##  1 1503960366      13162     1985                  13
##  2 1503960366      10735     1797                  19
##  3 1503960366      10460     1776                  11
##  4 1503960366       9762     1745                  34
##  5 1503960366      12669     1863                  10
##  6 1503960366       9705     1728                  20
##  7 1503960366      13019     1921                  16
##  8 1503960366      15506     2035                  31
##  9 1503960366      10544     1786                  12
## 10 1503960366       9819     1775                   8
## # ... with 930 more rows
select(daily_steps,Id,StepTotal)
## # A tibble: 940 x 2
##            Id StepTotal
##         <dbl>     <dbl>
##  1 1503960366     13162
##  2 1503960366     10735
##  3 1503960366     10460
##  4 1503960366      9762
##  5 1503960366     12669
##  6 1503960366      9705
##  7 1503960366     13019
##  8 1503960366     15506
##  9 1503960366     10544
## 10 1503960366      9819
## # ... with 930 more rows
select(daily_calories,Id,Calories)
## # A tibble: 940 x 2
##            Id Calories
##         <dbl>    <dbl>
##  1 1503960366     1985
##  2 1503960366     1797
##  3 1503960366     1776
##  4 1503960366     1745
##  5 1503960366     1863
##  6 1503960366     1728
##  7 1503960366     1921
##  8 1503960366     2035
##  9 1503960366     1786
## 10 1503960366     1775
## # ... with 930 more rows
select(daily_intensities,Id,FairlyActiveMinutes)
## # A tibble: 940 x 2
##            Id FairlyActiveMinutes
##         <dbl>               <dbl>
##  1 1503960366                  13
##  2 1503960366                  19
##  3 1503960366                  11
##  4 1503960366                  34
##  5 1503960366                  10
##  6 1503960366                  20
##  7 1503960366                  16
##  8 1503960366                  31
##  9 1503960366                  12
## 10 1503960366                   8
## # ... with 930 more rows
```
…
